<?xml version="1.0" encoding="UTF-8"?>
<svg width="127px" height="122px" viewBox="0 0 127 122" version="1.1" xmlns="http://www.w3.org/2000/svg" xmlns:xlink="http://www.w3.org/1999/xlink">
    <title>Group 3</title>
    <g id="Registration-(iOS)" stroke="none" stroke-width="1" fill="none" fill-rule="evenodd">
        <g id="07-Setup-3-[Dark]-Add-Photo" transform="translate(-144.000000, -335.000000)">
            <g id="Group-2" transform="translate(145.000000, 336.500000)">
                <g id="iconfinder_document-06_1622830" transform="translate(0.000000, 0.500000)">
                    <polygon id="Rectangle" fill="#FFFFFF" fill-rule="nonzero" transform="translate(62.710118, 53.984067) rotate(12.561744) translate(-62.710118, -53.984067) " points="8.52619863 11.447765 116.704439 11.691878 116.894036 96.5203686 8.71579629 96.2762556"></polygon>
                    <polygon id="Rectangle" stroke="#242C88" stroke-width="1.84807157" stroke-linecap="round" stroke-linejoin="round" transform="translate(62.710118, 53.984067) rotate(12.561744) translate(-62.710118, -53.984067) " points="8.52619863 11.447765 116.704439 11.691878 116.894036 96.5203686 8.71579629 96.2762556"></polygon>
                    <polygon id="Path" fill="#242C88" fill-rule="nonzero" opacity="0.2" points="118.865031 51.5172211 118.865031 22.703973 35.381849 3.85620915 18.2351107 3.85620915 0.766871166 83.2551223 76.2125193 100.261438 108.148319 100.261438"></polygon>
                    <polygon id="Path" fill="#FFFFFF" fill-rule="nonzero" points="98.7228938 9.25490196 5.36809816 9.25490196 5.36809816 118 113.496933 118 113.496933 28.2508811"></polygon>
                    <polygon id="Path" stroke="#242C88" stroke-width="1.848" stroke-linecap="round" stroke-linejoin="round" points="98.7228938 9.25490196 5.36809816 9.25490196 5.36809816 118 113.496933 118 113.496933 28.2508811"></polygon>
                    <g id="Group" transform="translate(16.104294, 21.594771)">
                        <rect id="Rectangle" fill="#589FFF" fill-rule="nonzero" x="0" y="0" width="85.8895706" height="86.379085"></rect>
                        <rect id="Rectangle" stroke="#242C88" stroke-width="1.848" stroke-linecap="round" stroke-linejoin="round" x="0" y="0" width="85.8895706" height="86.379085"></rect>
                    </g>
                    <polygon id="Path" fill="#FFC408" fill-rule="nonzero" points="113.496933 24.6797386 98.1595092 24.6797386 98.1595092 9.25490196"></polygon>
                    <polygon id="Path" stroke="#242C88" stroke-width="1.848" stroke-linecap="round" stroke-linejoin="round" points="113.496933 24.6797386 98.1595092 24.6797386 98.1595092 9.25490196"></polygon>
                </g>
                <g id="iconfinder_user_4918946" transform="translate(39.000000, 40.500000)" fill="#ABC9F2" fill-rule="nonzero">
                    <path d="M0,43.9034391 L0,52 L44,52 L44,43.9034391 C40.5131178,43.4758598 36.4409888,41.8271761 31.7836129,38.9573865 C30.2123871,37.9909995 28.091871,36.266237 30.1740645,26.9808323 L30.2180645,26.7814879 C31.5749677,26.0621146 32.6863226,24.4211345 33.0581935,22.316462 C33.3889032,20.4544697 33.063871,18.6358131 32.2945806,17.3256292 L33.2980645,12.749375 C33.2980645,12.749375 33.5407742,10.7602645 33.4939355,9.72598478 C33.4456774,8.63970221 33.2327742,7.85965887 33.0454194,6.97994333 C32.6196129,4.972054 30.956129,3.05516973 30.956129,3.05516973 L30.9376774,3.05516973 C29.763871,1.75365298 26.1658065,0.0101116729 22.0184516,0 L21.9843871,0 C17.8341935,0.0101116729 14.2389677,1.75365298 13.0623226,3.05516973 L13.0467097,3.05516973 C13.0467097,3.05516973 11.3803871,4.972054 10.9574194,6.97994333 C10.7672258,7.85965887 10.5543226,8.63970221 10.5060645,9.72598478 C10.4592258,10.7602645 10.7019355,12.749375 10.7019355,12.749375 L11.7054194,17.3256292 C10.936129,18.6358131 10.6139355,20.4544697 10.9446452,22.316462 C11.3179355,24.4211345 12.427871,26.0621146 13.7819355,26.7814879 L13.8259355,26.9808323 C15.9095484,36.266237 13.7876129,37.9909995 12.2163871,38.9573865 C7.55901123,41.8271761 3.48688219,43.4758598 0,43.9034391 Z" id="user"></path>
                </g>
            </g>
        </g>
    </g>
</svg>