<?xml version="1.0" encoding="UTF-8"?>
<svg width="12px" height="15px" viewBox="0 0 12 15" version="1.1" xmlns="http://www.w3.org/2000/svg" xmlns:xlink="http://www.w3.org/1999/xlink">
    <title>Shape Copy 6</title>
    <g id="Discovery" stroke="none" stroke-width="1" fill="none" fill-rule="evenodd">
        <g id="10-Discovery-Concept-Search-Results-[channels]" transform="translate(-673.000000, -906.000000)" fill="#30C171" fill-rule="nonzero">
            <path d="M679,906 L673,908.727273 L673,912.818182 C673,916.605682 675.556667,920.1375 679,921 C682.443333,920.1375 685,916.605682 685,912.818182 L685,908.727273 L679,906 Z M677.666667,916.909091 L675,914.302033 L675.943333,913.379786 L677.666667,915.064597 L682.056667,910.772727 L683,911.694974 L677.666667,916.909091 Z" id="Shape-Copy-6"></path>
        </g>
    </g>
</svg>