<?xml version="1.0" encoding="UTF-8"?>
<svg width="12px" height="15px" viewBox="0 0 12 15" version="1.1" xmlns="http://www.w3.org/2000/svg" xmlns:xlink="http://www.w3.org/1999/xlink">
    <title>Shape Copy 2</title>
    <g id="Discovery" stroke="none" stroke-width="1" fill="none" fill-rule="evenodd">
        <g id="14-Discovery-Concept-[top-story]" transform="translate(-575.000000, -197.000000)" fill="#30C171" fill-rule="nonzero">
            <path d="M581,197 L575,199.727273 L575,203.818182 C575,207.605682 577.556667,211.1375 581,212 C584.443333,211.1375 587,207.605682 587,203.818182 L587,199.727273 L581,197 Z M579.666667,207.909091 L577,205.302033 L577.943333,204.379786 L579.666667,206.064597 L584.056667,201.772727 L585,202.694974 L579.666667,207.909091 Z" id="Shape-Copy-2"></path>
        </g>
    </g>
</svg>