<?xml version="1.0" encoding="UTF-8"?>
<svg width="18px" height="11px" viewBox="0 0 18 11" version="1.1" xmlns="http://www.w3.org/2000/svg" xmlns:xlink="http://www.w3.org/1999/xlink">
    <title>iconfinder_retweet_216712 (1) copy 6</title>
    <g id="Discovery-Concepts" stroke="none" stroke-width="1" fill="none" fill-rule="evenodd">
        <g id="FULL-SCREEN-17-Rich-Embed---with-text" transform="translate(-194.000000, -836.000000)" fill="#AEB0B8" fill-rule="nonzero">
            <g id="iconfinder_retweet_216712-(1)-copy-6" transform="translate(194.000000, 836.000000)">
                <path d="M4.482,8.43333333 L4.482,3.64833333 L6.3,3.64833333 L3.15,0 L0,3.64833333 L1.818,3.64833333 L1.818,9.16666667 C1.818,10.1792167 2.62368,11 3.618,11 L11.7,11 L9.3951,8.43333333 L4.482,8.43333333 Z M16.182,7.35166667 L16.182,1.83333333 C16.182,0.820783333 15.37614,0 14.382,0 L6.3,0 L8.60472,2.56666667 L13.51782,2.56666667 L13.51782,7.35166667 L11.7,7.35166667 L14.85,11 L18,7.35166667 L16.182,7.35166667 Z" id="Shape"></path>
            </g>
        </g>
    </g>
</svg>