<?xml version="1.0" encoding="UTF-8"?>
<svg width="5px" height="19px" viewBox="0 0 5 19" version="1.1" xmlns="http://www.w3.org/2000/svg" xmlns:xlink="http://www.w3.org/1999/xlink">
    <title>Group Copy 5</title>
    <g id="Channel-(Web)" stroke="none" stroke-width="1" fill="none" fill-rule="evenodd">
        <g id="09-Discovery-Concept-Search-Results---free-text-[posts]" transform="translate(-913.000000, -212.000000)" fill="#9B9B9B">
            <g id="Group-Copy-5" transform="translate(913.000000, 212.000000)">
                <circle id="Oval-Copy-14" cx="2.5" cy="2.5" r="2.5"></circle>
                <circle id="Oval-Copy-13" cx="2.5" cy="9.5" r="2.5"></circle>
                <circle id="Oval-Copy-4" cx="2.5" cy="16.5" r="2.5"></circle>
            </g>
        </g>
    </g>
</svg>