<?xml version="1.0" encoding="UTF-8"?>
<svg width="12px" height="15px" viewBox="0 0 12 15" version="1.1" xmlns="http://www.w3.org/2000/svg" xmlns:xlink="http://www.w3.org/1999/xlink">
    <title>Shape Copy</title>
    <g id="Page-1" stroke="none" stroke-width="1" fill="none" fill-rule="evenodd">
        <g id="02-Sidebar---Switch-Language-Prompt---No-Emoji" transform="translate(-575.000000, -265.000000)" fill="#30C171" fill-rule="nonzero">
            <path d="M581,265 L575,267.727273 L575,271.818182 C575,275.605682 577.556667,279.1375 581,280 C584.443333,279.1375 587,275.605682 587,271.818182 L587,267.727273 L581,265 Z M579.666667,275.909091 L577,273.302033 L577.943333,272.379786 L579.666667,274.064597 L584.056667,269.772727 L585,270.694974 L579.666667,275.909091 Z" id="Shape-Copy"></path>
        </g>
    </g>
</svg>