<?xml version="1.0" encoding="UTF-8"?>
<svg width="17px" height="21px" viewBox="0 0 17 21" version="1.1" xmlns="http://www.w3.org/2000/svg" xmlns:xlink="http://www.w3.org/1999/xlink">
    <!-- Generator: Sketch 64 (93537) - https://sketch.com -->
    <title>iconfinder_Fire_116853</title>
    <desc>Created with Sketch.</desc>
    <g id="Atoms" stroke="none" stroke-width="1" fill="none" fill-rule="evenodd">
        <g id="02-Minds-Icons" transform="translate(-387.000000, -450.000000)" fill-rule="nonzero">
            <g id="iconfinder_Fire_116853" transform="translate(387.000000, 450.000000)">
                <path d="M16.5521474,11.3983027 C16.0545874,10.7603345 13.6878413,8.35193248 14.7090149,5.73884504 C14.7090149,5.73884504 12.2923857,7.63457685 13.1994954,10.380933 C12.7807316,9.77006486 8.80438216,7.68622646 9.13545337,0 C9.13545337,0 8.88444929,0.248683285 8.5,0.685154333 L8.5,20.4 C10.6926319,20.3384668 12.3435397,19.6759491 12.3435397,19.6759491 C12.3435397,19.6759491 18.7145952,16.4641088 16.5521474,11.3983027 Z" id="Path" fill="#D2623E"></path>
                <path d="M4.43632353,9.45338529 C4.43632353,9.45338529 5.05934923,14.4973921 7.13589168,15.305293 C7.13589168,15.305293 2.98312159,14.2960491 2.15231572,9.251094 C1.94516518,9.85670354 -3.71904826,15.3435387 4.21311725,19.5755356 C5.6767082,20.2516311 7.18657745,20.4324289 8.5,20.3954475 L8.5,0.85 C7.2215223,2.30333648 4.43632353,5.87757068 4.43632353,9.45338529 Z" id="Path" fill="#EC6C51"></path>
            </g>
        </g>
    </g>
</svg>