<?xml version="1.0" encoding="UTF-8"?>
<svg width="5px" height="19px" viewBox="0 0 5 19" version="1.1" xmlns="http://www.w3.org/2000/svg" xmlns:xlink="http://www.w3.org/1999/xlink">
    <title>Group Copy 6</title>
    <g id="Web-Pro" stroke="none" stroke-width="1" fill="none" fill-rule="evenodd">
        <g id="External-Pro-Site---02-Feed" transform="translate(-979.000000, -220.000000)" fill="#797B82">
            <g id="elements/post/info-copy" transform="translate(865.000000, 219.000000)">
                <g id="Group-Copy-6" transform="translate(114.000000, 1.000000)">
                    <circle id="Oval-Copy-14" cx="2.5" cy="2.5" r="2.5"></circle>
                    <circle id="Oval-Copy-13" cx="2.5" cy="9.5" r="2.5"></circle>
                    <circle id="Oval-Copy-4" cx="2.5" cy="16.5" r="2.5"></circle>
                </g>
            </g>
        </g>
    </g>
</svg>